{
  "project_info": {
    "project_number": "1010689397124",
    "project_id": "bitrise-demo-dc91a",
    "storage_bucket": "bitrise-demo-dc91a.appspot.com"
  },
  "client": [
    {
      "client_info": {
        "mobilesdk_app_id": "1:1010689397124:android:132dfe089b342f60e10dd1",
        "android_client_info": {
          "package_name": "com.bitrisedemo"
        }
      },
      "oauth_client": [
        {
          "client_id": "1010689397124-3mf7kdvab9541jiehbq0l2bb7clb7m9g.apps.googleusercontent.com",
          "client_type": 3
        }
      ],
      "api_key": [
        {
          "current_key": "AIzaSyB7nHK8CGKlMQdi9rhctgmHyc_pTtBq_5Y"
        }
      ],
      "services": {
        "appinvite_service": {
          "other_platform_oauth_client": [
            {
              "client_id": "1010689397124-3mf7kdvab9541jiehbq0l2bb7clb7m9g.apps.googleusercontent.com",
              "client_type": 3
            }
          ]
        }
      }
    }
  ],
  "configuration_version": "1"
}